%YAML 1.1
%TAG !u! tag:unity3d.com,2011:
--- !u!221 &22100000
AnimatorOverrideController:
  m_ObjectHideFlags: 0
  m_CorrespondingSourceObject: {fileID: 0}
  m_PrefabInstance: {fileID: 0}
  m_PrefabAsset: {fileID: 0}
  m_Name: Lucifer Override
  m_Controller: {fileID: 9100000, guid: 596fbaf43def8a54999157a5089972da, type: 2}
  m_Clips:
  - m_OriginalClip: {fileID: 7400064, guid: 7e5debf235ac2d54397a268de3328672, type: 3}
    m_OverrideClip: {fileID: 7400000, guid: bad4308454b2aed408ccbdd86dad9aad, type: 2}
  - m_OriginalClip: {fileID: 7400058, guid: 7e5debf235ac2d54397a268de3328672, type: 3}
    m_OverrideClip: {fileID: 7400000, guid: 4d123d440c39237409fc5c36cd49e5db, type: 2}
  - m_OriginalClip: {fileID: 7400060, guid: 7e5debf235ac2d54397a268de3328672, type: 3}
    m_OverrideClip: {fileID: 7400000, guid: 54afe34c34bbf444897649fc5c884624, type: 2}
  - m_OriginalClip: {fileID: 7400056, guid: 7e5debf235ac2d54397a268de3328672, type: 3}
    m_OverrideClip: {fileID: 7400000, guid: 6931dbf57a5755340ba25d24e0a0ee8c, type: 2}
  - m_OriginalClip: {fileID: 7400054, guid: 7e5debf235ac2d54397a268de3328672, type: 3}
    m_OverrideClip: {fileID: 7400000, guid: 654880c24f9a7ff4c94cb43ddf7427c0, type: 2}
  - m_OriginalClip: {fileID: 7400062, guid: 7e5debf235ac2d54397a268de3328672, type: 3}
    m_OverrideClip: {fileID: 7400000, guid: db955167d53a8e748a5ab417da2ff32a, type: 2}
